lncAnnotation performance Assessment
…
## The following objects are masked from 'package:stats':
## 
##     filter, lag

## The following objects are masked from 'package:base':
## 
##     intersect, setdiff, setequal, union

df <- data.frame("gene" =  lncRNAs_out$gene_id, "transcript" = lncRNAs_out$transcript_id)
df[!duplicated(df$transcript),] %>% group_by(gene) %>% count %>% filter(n > 1) 

## # A tibble: 2,891 x 2
## # Groups:   gene [2,891]
##    gene                   n
##    <fct>              <int>
##  1 ENSMMUG00000037508     2
##  2 ENSMMUG00000037598     2
##  3 ENSMMUG00000037629     2
##  4 ENSMMUG00000037804     2
##  5 ENSMMUG00000038218     2
##  6 ENSMMUG00000038505     2
##  7 ENSMMUG00000038553     2
##  8 ENSMMUG00000039196     2
##  9 ENSMMUG00000039399     2
## 10 ENSMMUG00000039829     2
## #  with 2,881 more rows
…
